<?xml version="1.0" encoding="UTF-8" standalone="no"?>

<svg xmlns:dc="http://purl.org/dc/elements/1.1/" xmlns:cc="http://creativecommons.org/ns#" xmlns:rdf="http://www.w3.org/1999/02/22-rdf-syntax-ns#" xmlns:svg="http://www.w3.org/2000/svg" xmlns="http://www.w3.org/2000/svg" xmlns:sodipodi="http://sodipodi.sourceforge.net/DTD/sodipodi-0.dtd"
viewBox="0 0 82 25" id="coko-logo" version="1.1" sodipodi:docname="coko-logo.svg">
  <defs
     id="defs4669" />
         
     
  <metadata
     id="coko-logo">
    <rdf:RDF>
      <cc:Work
         rdf:about="">
        <dc:format>image/svg+xml</dc:format>
        <dc:type
           rdf:resource="http://purl.org/dc/dcmitype/StillImage" />
        <dc:title>coko logo</dc:title>
      </cc:Work>
    </rdf:RDF>
  </metadata>
  <g transform="translate(-159.14877,-442.7469)">
    <path
       style="fill:#FF3972;fill-rule:evenodd;stroke:none;stroke-width:1"
       
       d="m 195.34077,447.354 0.593,-0.746 c -0.517,-0.525 -1.293,-0.852 -2.054,-0.852 -1.59,0 -2.815,1.164 -2.815,2.686 0,1.537 1.21,2.716 2.777,2.716 0.769,0 1.552,-0.357 2.1,-0.913 l -0.601,-0.669 c -0.396,0.388 -0.936,0.624 -1.445,0.624 -1.005,0 -1.789,-0.776 -1.789,-1.773 0,-0.989 0.784,-1.765 1.789,-1.765 0.524,0 1.064,0.266 1.445,0.692" />
    <path
       style="fill:#FF3972;fill-rule:evenodd;stroke:none;stroke-width:1"
       
       
       d="m 198.40727,447.8639 c 0.677,0 1.149,0.494 1.149,1.225 0,0.73 -0.472,1.233 -1.149,1.233 -0.67,0 -1.141,-0.503 -1.141,-1.233 0,-0.731 0.471,-1.225 1.141,-1.225 m 0,-0.852 c -1.271,0 -2.146,0.829 -2.146,2.062 0,1.24 0.875,2.077 2.146,2.077 1.278,0 2.153,-0.837 2.153,-2.077 0,-1.233 -0.875,-2.062 -2.153,-2.062" />
    <polygon
       transform="translate(158.79507,439.8303)"
       style="fill:#FF3972;fill-rule:evenodd;stroke:none;stroke-width:1"
       points="42.663,5.637 42.663,11.283 43.652,11.283 43.652,5.637 " />
       
    <polygon
       transform="translate(158.79507,439.8303)"
       style="fill:#FF3972;fill-rule:evenodd;stroke:none;stroke-width:1"
       points="44.96,5.637 44.96,11.283 45.95,11.283 45.95,5.637 "/>
       
    <g
       style="fill:#FF3972;fill-rule:evenodd;stroke:none;stroke-width:1"
       transform="translate(204.79507,444.7203)" >
      <path
         
         
         d="m 2.5446,5.6772 c 0.571,0 1.02,-0.304 1.073,-0.7 l 0,-0.365 -1.028,0 c -0.524,0 -0.768,0.144 -0.768,0.502 0,0.342 0.274,0.563 0.723,0.563 z m 2.054,0.715 -0.974,0 0,-0.494 c -0.281,0.357 -0.737,0.54 -1.316,0.54 -0.875,0 -1.423,-0.54 -1.423,-1.263 0,-0.754 0.556,-1.218 1.545,-1.225 l 1.187,0 0,-0.107 c 0,-0.471 -0.312,-0.753 -0.921,-0.753 -0.38,0 -0.791,0.129 -1.21,0.38 l -0.357,-0.684 c 0.585,-0.327 1.042,-0.503 1.788,-0.503 1.065,0 1.666,0.541 1.674,1.446 l 0.007,2.663 z" />
      <path
         
         
         d="m 7.886,5.5783 c -0.677,0 -1.149,-0.502 -1.149,-1.233 0,-0.715 0.472,-1.225 1.149,-1.225 0.669,0 1.141,0.51 1.141,1.225 0,0.723 -0.472,1.233 -1.141,1.233 m 0.22,-3.287 c -0.608,0 -1.08,0.251 -1.369,0.7 l 0,-2.245 -0.989,0 0,5.646 0.989,0 0,-0.662 c 0.297,0.449 0.768,0.7 1.385,0.7 1.156,0 1.91,-0.829 1.91,-2.054 0,-1.248 -0.777,-2.085 -1.926,-2.085" />
      <path
         
         
         d="m 12.6641,3.1436 c 0.677,0 1.149,0.494 1.149,1.225 0,0.73 -0.472,1.233 -1.149,1.233 -0.669,0 -1.141,-0.503 -1.141,-1.233 0,-0.731 0.472,-1.225 1.141,-1.225 m 0,-0.852 c -1.271,0 -2.146,0.829 -2.146,2.062 0,1.24 0.875,2.077 2.146,2.077 1.279,0 2.153,-0.837 2.153,-2.077 0,-1.233 -0.874,-2.062 -2.153,-2.062" />
      <path
         
         
         d="m 16.6665,3.1056 0,-0.784 -0.989,0 0,4.071 0.989,0 0,-1.963 c 0,-0.738 0.524,-1.241 1.384,-1.187 l 0,-0.959 c -0.631,0.008 -1.11,0.289 -1.384,0.822" />
      <path
         
         
         d="m 19.9229,5.6772 c -0.449,0 -0.723,-0.221 -0.723,-0.563 0,-0.358 0.244,-0.502 0.768,-0.502 l 1.028,0 0,0.365 c -0.054,0.396 -0.502,0.7 -1.073,0.7 l 0,0 z m 2.054,0.715 -0.007,-2.663 c -0.008,-0.905 -0.609,-1.446 -1.674,-1.446 -0.746,0 -1.203,0.176 -1.788,0.503 l 0.357,0.684 c 0.419,-0.251 0.83,-0.38 1.21,-0.38 0.609,0 0.921,0.282 0.921,0.753 l 0,0.107 -1.187,0 c -0.989,0.007 -1.545,0.471 -1.545,1.225 0,0.723 0.548,1.263 1.423,1.263 0.578,0 1.035,-0.183 1.317,-0.54 l 0,0.494 0.973,0 z" />
      <path
         
         
         d="m 25.2413,5.3956 c -0.221,0.107 -0.411,0.167 -0.578,0.167 -0.267,0 -0.426,-0.129 -0.426,-0.517 l 0,-1.834 1.164,0 0,-0.722 -1.164,0 0,-1.119 -0.982,0 0,1.119 -0.578,0 0.007,0.722 0.571,0 0,2.009 c 0,0.837 0.533,1.217 1.194,1.217 0.358,0 0.708,-0.106 1.02,-0.296 l -0.228,-0.746 z" />
      <path
         
         
         d="m 26.246,6.392 0.989,0 0,-4.07 -0.989,0 0,4.07 z m 0.494,-5.82 c -0.327,0 -0.555,0.243 -0.555,0.586 0,0.334 0.228,0.586 0.555,0.586 0.327,0 0.555,-0.252 0.555,-0.586 0,-0.343 -0.228,-0.586 -0.555,-0.586 l 0,0 z" />
    </g>
    <polygon
       transform="translate(158.79507,439.8303)"
       style="fill:#FF3972;fill-rule:evenodd;stroke:none;stroke-width:1"
       points="76.9778,7.2115 75.9358,10.3085 74.8698,7.2115 73.8358,7.2195 75.4028,11.2825 76.4228,11.2825 77.9748,7.2115 "/>
       
    <path
       style="fill:#FF3972;fill-rule:evenodd;stroke:none;stroke-width:1"
       
       
       d="m 237.81217,448.7619 c 0.092,-0.601 0.503,-0.982 1.089,-0.982 0.615,0 1.019,0.381 1.042,0.982 l -2.131,0 z m 1.081,-1.75 c -1.217,0 -2.07,0.837 -2.07,2.077 0,1.225 0.829,2.062 2.092,2.062 0.716,0 1.309,-0.259 1.713,-0.7 l -0.533,-0.556 c -0.289,0.297 -0.677,0.457 -1.096,0.457 -0.593,0 -1.035,-0.35 -1.164,-0.928 l 3.006,0 c 0.098,-1.477 -0.518,-2.412 -1.948,-2.412 l 0,0 z" />
    <polygon
       transform="translate(158.79507,439.8303)"
       style="fill:#FF3972;fill-rule:evenodd;stroke:none;stroke-width:1"
       points="36.2181,18.8915 37.4511,18.8915 35.2751,15.8175 37.3071,13.5645 36.1201,13.5645 33.7071,16.1675 33.7071,13.5645 32.6881,13.5645 32.6881,18.8915 33.7071,18.8915 33.7071,17.5525 34.5601,16.6085 "/>
       
    <g
       style="fill:#FF3972;fill-rule:evenodd;stroke:none;stroke-width:1"
       transform="translate(196.79507,453.7203)"
       id="Group-59">
      <path
         
         
         d="m 2.624,0.8925 c -0.662,0.008 -1.172,0.259 -1.461,0.799 l 0,-0.761 -0.989,0 0,4.071 0.989,0 0,-2.001 c 0,-0.67 0.396,-1.165 1.065,-1.172 0.563,0 0.905,0.35 0.905,0.921 l 0,2.252 0.998,0 0,-2.542 c 0,-0.966 -0.572,-1.567 -1.507,-1.567" />
      <path
         
         
         d="m 7.0141,1.752 c 0.678,0 1.149,0.495 1.149,1.225 0,0.731 -0.471,1.232 -1.149,1.232 -0.669,0 -1.141,-0.501 -1.141,-1.232 0,-0.73 0.472,-1.225 1.141,-1.225 m 0,-0.852 c -1.271,0 -2.146,0.829 -2.146,2.062 0,1.24 0.875,2.077 2.146,2.077 1.278,0 2.153,-0.837 2.153,-2.077 0,-1.233 -0.875,-2.062 -2.153,-2.062" />
    </g>
    <polygon
       transform="translate(158.79507,439.8303)"
       style="fill:#FF3972;fill-rule:evenodd;stroke:none;stroke-width:1"
       points="49.2749,17.894 48.2779,14.82 47.2589,14.828 48.7499,18.892 49.7619,18.892 50.7279,16.023 51.7019,18.892 52.7139,18.892 54.1899,14.82 53.1939,14.82 52.2189,17.894 51.2379,14.82 50.2409,14.82 "/>
       
    <polygon
       transform="translate(158.79507,439.8303)"
       style="fill:#FF3972;fill-rule:evenodd;stroke:none;stroke-width:1"
       points="54.806,13.245 54.806,18.891 55.795,18.891 55.795,13.245 "/>
       
    <g
       style="fill:#FF3972;fill-rule:evenodd;stroke:none;stroke-width:1"
       transform="translate(214.79507,452.7203)"
       id="Group-70">
      <path
         
         
         d="m 1.6826,3.6498 c 0.091,-0.601 0.502,-0.981 1.088,-0.981 0.617,0 1.019,0.38 1.043,0.981 l -2.131,0 z m 1.08,-1.75 c -1.217,0 -2.069,0.837 -2.069,2.077 0,1.225 0.829,2.062 2.092,2.062 0.715,0 1.309,-0.258 1.712,-0.7 l -0.533,-0.555 c -0.289,0.296 -0.677,0.457 -1.095,0.457 -0.594,0 -1.035,-0.351 -1.164,-0.928 l 3.005,0 c 0.099,-1.477 -0.517,-2.413 -1.948,-2.413 l 0,0 z" />
      <path
         
         
         d="m 7.3508,5.2178 c -0.684,0 -1.149,-0.51 -1.156,-1.241 0.007,-0.722 0.479,-1.24 1.156,-1.24 0.685,0 1.157,0.51 1.157,1.24 0,0.731 -0.472,1.241 -1.157,1.241 l 0,0 z m 1.157,-4.862 0,2.244 c -0.297,-0.456 -0.769,-0.707 -1.393,-0.707 -1.141,0 -1.917,0.829 -1.917,2.062 0,1.24 0.776,2.092 1.941,2.092 0.608,0 1.079,-0.251 1.369,-0.7 l 0,0.655 0.989,0 0,-5.646 -0.989,0 z" />
      <path
         
         
         d="m 12.4185,5.0192 c -0.647,0 -1.081,-0.479 -1.088,-1.163 0.007,-0.678 0.449,-1.165 1.088,-1.165 0.639,0 1.08,0.479 1.08,1.165 0,0.684 -0.441,1.163 -1.08,1.163 l 0,0 z m 1.08,-3.089 0,0.609 c -0.281,-0.411 -0.738,-0.647 -1.324,-0.639 -1.057,0 -1.78,0.783 -1.78,1.932 0,1.172 0.73,1.963 1.811,1.963 0.578,0 1.019,-0.228 1.293,-0.638 l 0,0.479 c 0,0.646 -0.464,1.05 -1.194,1.05 -0.487,0 -0.898,-0.152 -1.271,-0.426 l -0.395,0.715 c 0.479,0.327 1.065,0.54 1.719,0.54 1.286,0 2.13,-0.738 2.13,-1.902 l 0,-3.683 -0.989,0 z" />
      <path
         
         
         d="m 16.2682,3.6498 c 0.091,-0.601 0.503,-0.981 1.088,-0.981 0.617,0 1.02,0.38 1.043,0.981 l -2.131,0 z m 1.081,-1.75 c -1.217,0 -2.07,0.837 -2.07,2.077 0,1.225 0.829,2.062 2.092,2.062 0.715,0 1.309,-0.258 1.712,-0.7 l -0.532,-0.555 c -0.289,0.296 -0.677,0.457 -1.096,0.457 -0.593,0 -1.035,-0.351 -1.164,-0.928 l 3.006,0 c 0.098,-1.477 -0.518,-2.413 -1.948,-2.413 l 0,0 z" />
    </g>
    <polygon
       transform="translate(158.79507,439.8303)"
       style="fill:#FF3972;fill-rule:evenodd;stroke:none;stroke-width:1"
       points="32.688,26.4999 33.707,26.4999 33.707,24.3919 36.12,24.3919 36.12,23.5019 33.707,23.5019 33.707,22.0639 36.355,22.0639 36.363,21.1739 32.688,21.1739 "/>
       
    <g
       style="fill:#FF3972;fill-rule:evenodd;stroke:none;stroke-width:1"
       transform="translate(190.79507,445.7203)"
       id="Group-90">
      <path
         
         
         d="m 6.859,17.3611 c -0.67,0 -1.141,0.494 -1.141,1.225 0,0.73 0.471,1.233 1.141,1.233 0.677,0 1.149,-0.503 1.149,-1.233 0,-0.731 -0.472,-1.225 -1.149,-1.225 z m 0,-0.852 c 1.278,0 2.153,0.829 2.153,2.061 0,1.241 -0.875,2.077 -2.153,2.077 -1.271,0 -2.146,-0.836 -2.146,-2.077 0,-1.232 0.875,-2.061 2.146,-2.061 z" />
      <path
         
         
         d="m 12.6335,16.5391 0,2.009 c 0,0.654 -0.38,1.156 -1.019,1.164 -0.548,0 -0.875,-0.342 -0.875,-0.913 l 0,-2.26 -0.997,0 0,2.549 c 0,0.959 0.563,1.559 1.476,1.559 0.647,0 1.134,-0.25 1.415,-0.791 l 0,0.754 0.997,0 0,-4.071 -0.997,0 z" />
      <path
         
         
         d="m 17.3131,16.5015 c -0.662,0.008 -1.172,0.259 -1.461,0.799 l 0,-0.761 -0.989,0 0,4.07 0.989,0 0,-2.001 c 0,-0.669 0.396,-1.164 1.065,-1.171 0.563,0 0.906,0.349 0.906,0.92 l 0,2.252 0.997,0 0,-2.541 c 0,-0.966 -0.571,-1.567 -1.507,-1.567" />
      <path
         
         
         d="m 21.7107,19.8263 c -0.684,0 -1.149,-0.51 -1.156,-1.24 0.007,-0.723 0.479,-1.24 1.156,-1.24 0.685,0 1.157,0.509 1.157,1.24 0,0.73 -0.472,1.24 -1.157,1.24 l 0,0 z m 1.157,-4.862 0,2.244 c -0.297,-0.456 -0.769,-0.707 -1.393,-0.707 -1.141,0 -1.917,0.829 -1.917,2.061 0,1.241 0.776,2.093 1.94,2.093 0.609,0 1.08,-0.251 1.37,-0.7 l 0,0.655 0.989,0 0,-5.646 -0.989,0 z" />
      <path
         
         
         d="m 26.4509,19.8947 c -0.449,0 -0.722,-0.221 -0.722,-0.563 0,-0.358 0.243,-0.503 0.768,-0.503 l 1.027,0 0,0.366 c -0.053,0.395 -0.502,0.7 -1.073,0.7 l 0,0 z m 2.055,0.715 -0.008,-2.663 c -0.007,-0.905 -0.609,-1.445 -1.674,-1.445 -0.746,0 -1.202,0.174 -1.788,0.501 l 0.358,0.686 c 0.418,-0.252 0.829,-0.381 1.209,-0.381 0.609,0 0.921,0.281 0.921,0.754 l 0,0.106 -1.187,0 c -0.989,0.007 -1.545,0.472 -1.545,1.225 0,0.722 0.548,1.263 1.423,1.263 0.579,0 1.035,-0.183 1.317,-0.541 l 0,0.495 0.974,0 z" />
      <path
         
         
         d="m 31.7697,19.6135 c -0.221,0.106 -0.411,0.167 -0.579,0.167 -0.266,0 -0.425,-0.129 -0.425,-0.517 l 0,-1.834 1.164,0 0,-0.723 -1.164,0 0,-1.119 -0.982,0 0,1.119 -0.578,0 0.007,0.723 0.571,0 0,2.009 c 0,0.837 0.532,1.217 1.194,1.217 0.358,0 0.708,-0.106 1.02,-0.297 l -0.228,-0.745 z" />
      <path
         
         
         d="m 32.774,20.61 0.989,0 0,-4.071 -0.989,0 0,4.071 z m 0.495,-5.821 c -0.328,0 -0.556,0.244 -0.556,0.586 0,0.335 0.228,0.586 0.556,0.586 0.326,0 0.555,-0.251 0.555,-0.586 0,-0.342 -0.229,-0.586 -0.555,-0.586 l 0,0 z" />
      <path
         
         
         d="m 36.7607,17.3611 c 0.677,0 1.149,0.494 1.149,1.225 0,0.73 -0.472,1.233 -1.149,1.233 -0.669,0 -1.141,-0.503 -1.141,-1.233 0,-0.731 0.472,-1.225 1.141,-1.225 m 0,-0.852 c -1.271,0 -2.145,0.829 -2.145,2.061 0,1.241 0.874,2.077 2.145,2.077 1.278,0 2.154,-0.836 2.154,-2.077 0,-1.232 -0.876,-2.061 -2.154,-2.061" />
      <path
         
         
         d="m 42.2239,16.5015 c -0.662,0.008 -1.172,0.259 -1.461,0.799 l 0,-0.761 -0.989,0 0,4.07 0.989,0 0,-2.001 c 0,-0.669 0.396,-1.164 1.065,-1.171 0.563,0 0.906,0.349 0.906,0.92 l 0,2.252 0.997,0 0,-2.541 c 0,-0.966 -0.571,-1.567 -1.507,-1.567" />
      <path
         
         
         d="m 4.5457,1.6337 0.593,-0.746 c -0.517,-0.525 -1.293,-0.852 -2.054,-0.852 -1.59,0 -2.815,1.164 -2.815,2.686 0,1.537 1.21,2.716 2.777,2.716 0.769,0 1.552,-0.357 2.1,-0.913 l -0.601,-0.669 c -0.396,0.388 -0.936,0.624 -1.445,0.624 -1.005,0 -1.789,-0.776 -1.789,-1.773 0,-0.989 0.784,-1.765 1.789,-1.765 0.524,0 1.064,0.266 1.445,0.692" />
      <path
         
         
         d="m 7.6122,2.1436 c 0.677,0 1.149,0.494 1.149,1.225 0,0.73 -0.472,1.233 -1.149,1.233 -0.67,0 -1.141,-0.503 -1.141,-1.233 0,-0.731 0.471,-1.225 1.141,-1.225 m 0,-0.852 c -1.271,0 -2.146,0.829 -2.146,2.062 0,1.24 0.875,2.077 2.146,2.077 1.278,0 2.153,-0.837 2.153,-2.077 0,-1.233 -0.875,-2.062 -2.153,-2.062" />
    </g>
    <polygon
       transform="translate(158.79507,439.8303)"
       style="fill:#FF3972;fill-rule:evenodd;stroke:none;stroke-width:1"
       points="42.663,5.637 42.663,11.283 43.652,11.283 43.652,5.637 "/>
       
    <polygon
       transform="translate(158.79507,439.8303)"
       style="fill:#FF3972;fill-rule:evenodd;stroke:none;stroke-width:1"
       points="44.96,5.637 44.96,11.283 45.95,11.283 45.95,5.637 "/>
       
    <g
       style="fill:#FF3972;fill-rule:evenodd;stroke:none;stroke-width:1"
       transform="translate(204.79507,444.7203)">
      <path
         
         
         d="m 2.5446,5.6772 c 0.571,0 1.02,-0.304 1.073,-0.7 l 0,-0.365 -1.028,0 c -0.524,0 -0.768,0.144 -0.768,0.502 0,0.342 0.274,0.563 0.723,0.563 z m 2.054,0.715 -0.974,0 0,-0.494 c -0.281,0.357 -0.737,0.54 -1.316,0.54 -0.875,0 -1.423,-0.54 -1.423,-1.263 0,-0.754 0.556,-1.218 1.545,-1.225 l 1.187,0 0,-0.107 c 0,-0.471 -0.312,-0.753 -0.921,-0.753 -0.38,0 -0.791,0.129 -1.21,0.38 l -0.357,-0.684 c 0.585,-0.327 1.042,-0.503 1.788,-0.503 1.065,0 1.666,0.541 1.674,1.446 l 0.007,2.663 z" />
      <path
         
         
         d="m 7.886,5.5783 c -0.677,0 -1.149,-0.502 -1.149,-1.233 0,-0.715 0.472,-1.225 1.149,-1.225 0.669,0 1.141,0.51 1.141,1.225 0,0.723 -0.472,1.233 -1.141,1.233 m 0.22,-3.287 c -0.608,0 -1.08,0.251 -1.369,0.7 l 0,-2.245 -0.989,0 0,5.646 0.989,0 0,-0.662 c 0.297,0.449 0.768,0.7 1.385,0.7 1.156,0 1.91,-0.829 1.91,-2.054 0,-1.248 -0.777,-2.085 -1.926,-2.085" />
      <path
         
         
         d="m 12.6641,3.1436 c 0.677,0 1.149,0.494 1.149,1.225 0,0.73 -0.472,1.233 -1.149,1.233 -0.669,0 -1.141,-0.503 -1.141,-1.233 0,-0.731 0.472,-1.225 1.141,-1.225 m 0,-0.852 c -1.271,0 -2.146,0.829 -2.146,2.062 0,1.24 0.875,2.077 2.146,2.077 1.279,0 2.153,-0.837 2.153,-2.077 0,-1.233 -0.874,-2.062 -2.153,-2.062" />
      <path
         
         
         d="m 16.6665,3.1056 0,-0.784 -0.989,0 0,4.071 0.989,0 0,-1.963 c 0,-0.738 0.524,-1.241 1.384,-1.187 l 0,-0.959 c -0.631,0.008 -1.11,0.289 -1.384,0.822" />
      <path
         
         
         d="m 19.9229,5.6772 c -0.449,0 -0.723,-0.221 -0.723,-0.563 0,-0.358 0.244,-0.502 0.768,-0.502 l 1.028,0 0,0.365 c -0.054,0.396 -0.502,0.7 -1.073,0.7 l 0,0 z m 2.054,0.715 -0.007,-2.663 c -0.008,-0.905 -0.609,-1.446 -1.674,-1.446 -0.746,0 -1.203,0.176 -1.788,0.503 l 0.357,0.684 c 0.419,-0.251 0.83,-0.38 1.21,-0.38 0.609,0 0.921,0.282 0.921,0.753 l 0,0.107 -1.187,0 c -0.989,0.007 -1.545,0.471 -1.545,1.225 0,0.723 0.548,1.263 1.423,1.263 0.578,0 1.035,-0.183 1.317,-0.54 l 0,0.494 0.973,0 z" />
      <path
         
         
         d="m 25.2413,5.3956 c -0.221,0.107 -0.411,0.167 -0.578,0.167 -0.267,0 -0.426,-0.129 -0.426,-0.517 l 0,-1.834 1.164,0 0,-0.722 -1.164,0 0,-1.119 -0.982,0 0,1.119 -0.578,0 0.007,0.722 0.571,0 0,2.009 c 0,0.837 0.533,1.217 1.194,1.217 0.358,0 0.708,-0.106 1.02,-0.296 l -0.228,-0.746 z" />
      <path
         
         
         d="m 26.246,6.392 0.989,0 0,-4.07 -0.989,0 0,4.07 z m 0.494,-5.82 c -0.327,0 -0.555,0.243 -0.555,0.586 0,0.334 0.228,0.586 0.555,0.586 0.327,0 0.555,-0.252 0.555,-0.586 0,-0.343 -0.228,-0.586 -0.555,-0.586 l 0,0 z" />
    </g>
    <polygon
       transform="translate(158.79507,439.8303)"
       style="fill:#FF3972;fill-rule:evenodd;stroke:none;stroke-width:1"
       points="76.9778,7.2115 75.9358,10.3085 74.8698,7.2115 73.8358,7.2195 75.4028,11.2825 76.4228,11.2825 77.9748,7.2115 "/>
       
    <path
       style="fill:#FF3972;fill-rule:evenodd;stroke:none;stroke-width:1"
       
       
       d="m 237.81217,448.7619 c 0.092,-0.601 0.503,-0.982 1.089,-0.982 0.615,0 1.019,0.381 1.042,0.982 l -2.131,0 z m 1.081,-1.75 c -1.217,0 -2.07,0.837 -2.07,2.077 0,1.225 0.829,2.062 2.092,2.062 0.716,0 1.309,-0.259 1.713,-0.7 l -0.533,-0.556 c -0.289,0.297 -0.677,0.457 -1.096,0.457 -0.593,0 -1.035,-0.35 -1.164,-0.928 l 3.006,0 c 0.098,-1.477 -0.518,-2.412 -1.948,-2.412 l 0,0 z" />
    <polygon
       transform="translate(158.79507,439.8303)"
       style="fill:#FF3972;fill-rule:evenodd;stroke:none;stroke-width:1"
       points="36.2181,18.8915 37.4511,18.8915 35.2751,15.8175 37.3071,13.5645 36.1201,13.5645 33.7071,16.1675 33.7071,13.5645 32.6881,13.5645 32.6881,18.8915 33.7071,18.8915 33.7071,17.5525 34.5601,16.6085 "/>
       
    <g
       style="fill:#FF3972;fill-rule:evenodd;stroke:none;stroke-width:1"
       transform="translate(196.79507,453.7203)"
       id="Group-116">
      <path
         
         
         d="m 2.624,0.8925 c -0.662,0.008 -1.172,0.259 -1.461,0.799 l 0,-0.761 -0.989,0 0,4.071 0.989,0 0,-2.001 c 0,-0.67 0.396,-1.165 1.065,-1.172 0.563,0 0.905,0.35 0.905,0.921 l 0,2.252 0.998,0 0,-2.542 c 0,-0.966 -0.572,-1.567 -1.507,-1.567" />
      <path
         
         
         d="m 7.0141,1.752 c 0.678,0 1.149,0.495 1.149,1.225 0,0.731 -0.471,1.232 -1.149,1.232 -0.669,0 -1.141,-0.501 -1.141,-1.232 0,-0.73 0.472,-1.225 1.141,-1.225 m 0,-0.852 c -1.271,0 -2.146,0.829 -2.146,2.062 0,1.24 0.875,2.077 2.146,2.077 1.278,0 2.153,-0.837 2.153,-2.077 0,-1.233 -0.875,-2.062 -2.153,-2.062" />
    </g>
    <polygon
       transform="translate(158.79507,439.8303)"
       style="fill:#FF3972;fill-rule:evenodd;stroke:none;stroke-width:1"
       points="49.2749,17.894 48.2779,14.82 47.2589,14.828 48.7499,18.892 49.7619,18.892 50.7279,16.023 51.7019,18.892 52.7139,18.892 54.1899,14.82 53.1939,14.82 52.2189,17.894 51.2379,14.82 50.2409,14.82 "/>
       
    <polygon
       transform="translate(158.79507,439.8303)"
       style="fill:#FF3972;fill-rule:evenodd;stroke:none;stroke-width:1"
       points="54.806,13.245 54.806,18.891 55.795,18.891 55.795,13.245 "/>
       
    <g
       style="fill:#FF3972;fill-rule:evenodd;stroke:none;stroke-width:1"
       transform="translate(214.79507,452.7203)">
      <path
         
         
         d="m 1.6826,3.6498 c 0.091,-0.601 0.502,-0.981 1.088,-0.981 0.617,0 1.019,0.38 1.043,0.981 l -2.131,0 z m 1.08,-1.75 c -1.217,0 -2.069,0.837 -2.069,2.077 0,1.225 0.829,2.062 2.092,2.062 0.715,0 1.309,-0.258 1.712,-0.7 l -0.533,-0.555 c -0.289,0.296 -0.677,0.457 -1.095,0.457 -0.594,0 -1.035,-0.351 -1.164,-0.928 l 3.005,0 c 0.099,-1.477 -0.517,-2.413 -1.948,-2.413 l 0,0 z" />
      <path
         
         
         d="m 7.3508,5.2178 c -0.684,0 -1.149,-0.51 -1.156,-1.241 0.007,-0.722 0.479,-1.24 1.156,-1.24 0.685,0 1.157,0.51 1.157,1.24 0,0.731 -0.472,1.241 -1.157,1.241 l 0,0 z m 1.157,-4.862 0,2.244 c -0.297,-0.456 -0.769,-0.707 -1.393,-0.707 -1.141,0 -1.917,0.829 -1.917,2.062 0,1.24 0.776,2.092 1.941,2.092 0.608,0 1.079,-0.251 1.369,-0.7 l 0,0.655 0.989,0 0,-5.646 -0.989,0 z" />
      <path
         
         
         d="m 12.4185,5.0192 c -0.647,0 -1.081,-0.479 -1.088,-1.163 0.007,-0.678 0.449,-1.165 1.088,-1.165 0.639,0 1.08,0.479 1.08,1.165 0,0.684 -0.441,1.163 -1.08,1.163 l 0,0 z m 1.08,-3.089 0,0.609 c -0.281,-0.411 -0.738,-0.647 -1.324,-0.639 -1.057,0 -1.78,0.783 -1.78,1.932 0,1.172 0.73,1.963 1.811,1.963 0.578,0 1.019,-0.228 1.293,-0.638 l 0,0.479 c 0,0.646 -0.464,1.05 -1.194,1.05 -0.487,0 -0.898,-0.152 -1.271,-0.426 l -0.395,0.715 c 0.479,0.327 1.065,0.54 1.719,0.54 1.286,0 2.13,-0.738 2.13,-1.902 l 0,-3.683 -0.989,0 z" />
      <path
         
         
         d="m 16.2682,3.6498 c 0.091,-0.601 0.503,-0.981 1.088,-0.981 0.617,0 1.02,0.38 1.043,0.981 l -2.131,0 z m 1.081,-1.75 c -1.217,0 -2.07,0.837 -2.07,2.077 0,1.225 0.829,2.062 2.092,2.062 0.715,0 1.309,-0.258 1.712,-0.7 l -0.532,-0.555 c -0.289,0.296 -0.677,0.457 -1.096,0.457 -0.593,0 -1.035,-0.351 -1.164,-0.928 l 3.006,0 c 0.098,-1.477 -0.518,-2.413 -1.948,-2.413 l 0,0 z" />
    </g>
    <polygon
       transform="translate(158.79507,439.8303)"
       style="fill:#FF3972;fill-rule:evenodd;stroke:none;stroke-width:1"
       points="32.688,26.4999 33.707,26.4999 33.707,24.3919 36.12,24.3919 36.12,23.5019 33.707,23.5019 33.707,22.0639 36.355,22.0639 36.363,21.1739 32.688,21.1739 "/>
       
    <g
       style="fill:#FF3972;fill-rule:evenodd;stroke:none;stroke-width:1"
       transform="translate(194.79507,459.7203)"
       id="Group-145">
      <path
         
         
         d="m 2.859,3.3611 c -0.67,0 -1.141,0.494 -1.141,1.225 0,0.73 0.471,1.233 1.141,1.233 0.677,0 1.149,-0.503 1.149,-1.233 0,-0.731 -0.472,-1.225 -1.149,-1.225 z m 0,-0.852 c 1.278,0 2.153,0.829 2.153,2.061 0,1.241 -0.875,2.077 -2.153,2.077 -1.271,0 -2.146,-0.836 -2.146,-2.077 0,-1.232 0.875,-2.061 2.146,-2.061 z" />
      <path
         
         
         d="m 8.6335,2.5391 0,2.009 c 0,0.654 -0.38,1.156 -1.019,1.164 -0.548,0 -0.875,-0.342 -0.875,-0.913 l 0,-2.26 -0.997,0 0,2.549 c 0,0.959 0.563,1.559 1.476,1.559 0.647,0 1.134,-0.25 1.415,-0.791 l 0,0.754 0.997,0 0,-4.071 -0.997,0 z" />
      <path
         
         
         d="m 13.3131,2.5015 c -0.662,0.008 -1.172,0.259 -1.461,0.799 l 0,-0.761 -0.989,0 0,4.07 0.989,0 0,-2.001 c 0,-0.669 0.396,-1.164 1.065,-1.171 0.563,0 0.906,0.349 0.906,0.92 l 0,2.252 0.997,0 0,-2.541 c 0,-0.966 -0.571,-1.567 -1.507,-1.567" />
      <path
         
         
         d="m 17.7107,5.8263 c -0.684,0 -1.149,-0.51 -1.156,-1.24 0.007,-0.723 0.479,-1.24 1.156,-1.24 0.685,0 1.157,0.509 1.157,1.24 0,0.73 -0.472,1.24 -1.157,1.24 l 0,0 z m 1.157,-4.862 0,2.244 c -0.297,-0.456 -0.769,-0.707 -1.393,-0.707 -1.141,0 -1.917,0.829 -1.917,2.061 0,1.241 0.776,2.093 1.94,2.093 0.609,0 1.08,-0.251 1.37,-0.7 l 0,0.655 0.989,0 0,-5.646 -0.989,0 z" />
      <path
         
         
         d="m 22.4509,5.8947 c -0.449,0 -0.722,-0.221 -0.722,-0.563 0,-0.358 0.243,-0.503 0.768,-0.503 l 1.027,0 0,0.366 c -0.053,0.395 -0.502,0.7 -1.073,0.7 l 0,0 z m 2.055,0.715 -0.008,-2.663 c -0.007,-0.905 -0.609,-1.445 -1.674,-1.445 -0.746,0 -1.202,0.174 -1.788,0.501 l 0.358,0.686 c 0.418,-0.252 0.829,-0.381 1.209,-0.381 0.609,0 0.921,0.281 0.921,0.754 l 0,0.106 -1.187,0 c -0.989,0.007 -1.545,0.472 -1.545,1.225 0,0.722 0.548,1.263 1.423,1.263 0.579,0 1.035,-0.183 1.317,-0.541 l 0,0.495 0.974,0 z" />
      <path
         
         
         d="m 27.7697,5.6135 c -0.221,0.106 -0.411,0.167 -0.579,0.167 -0.266,0 -0.425,-0.129 -0.425,-0.517 l 0,-1.834 1.164,0 0,-0.723 -1.164,0 0,-1.119 -0.982,0 0,1.119 -0.578,0 0.007,0.723 0.571,0 0,2.009 c 0,0.837 0.532,1.217 1.194,1.217 0.358,0 0.708,-0.106 1.02,-0.297 l -0.228,-0.745 z" />
      <path
         
         
         d="m 28.774,6.61 0.989,0 0,-4.071 -0.989,0 0,4.071 z m 0.495,-5.821 c -0.328,0 -0.556,0.244 -0.556,0.586 0,0.335 0.228,0.586 0.556,0.586 0.326,0 0.555,-0.251 0.555,-0.586 0,-0.342 -0.229,-0.586 -0.555,-0.586 l 0,0 z" />
      <path
         
         
         d="m 32.7607,3.3611 c 0.677,0 1.149,0.494 1.149,1.225 0,0.73 -0.472,1.233 -1.149,1.233 -0.669,0 -1.141,-0.503 -1.141,-1.233 0,-0.731 0.472,-1.225 1.141,-1.225 m 0,-0.852 c -1.271,0 -2.145,0.829 -2.145,2.061 0,1.241 0.874,2.077 2.145,2.077 1.278,0 2.154,-0.836 2.154,-2.077 0,-1.232 -0.876,-2.061 -2.154,-2.061" />
      <path
         
         
         d="m 38.2239,2.5015 c -0.662,0.008 -1.172,0.259 -1.461,0.799 l 0,-0.761 -0.989,0 0,4.07 0.989,0 0,-2.001 c 0,-0.669 0.396,-1.164 1.065,-1.171 0.563,0 0.906,0.349 0.906,0.92 l 0,2.252 0.997,0 0,-2.541 c 0,-0.966 -0.571,-1.567 -1.507,-1.567" />
    </g>
    <polygon
       transform="translate(158.79507,439.8303)"
       style="fill:#FF3972;fill-rule:evenodd;stroke:none;stroke-width:1"
       points="11.352,21.0012 10.637,23.5072 11.348,22.6532 "/>
       
    <g
       style="fill:#FF3972;fill-rule:evenodd;stroke:none;stroke-width:1"
       transform="translate(160.79507,442.7203)"
       id="Group-159">
      <path
         
         
         d="m 7.9764,24.2365 -0.001,0.52 c 0.455,0.097 0.912,0.169 1.36,0.215 l 0.006,-2.374 -1.365,1.639 z" />
      <path
         
         
         d="m 0.0839,4.1496 11.726,19.871 c 0.488,-0.065 0.964,-0.157 1.418,-0.272 L 1.0059,3.0336 c -0.312,0.334 -0.616,0.701 -0.922,1.116" />
      <path
         
         
         d="m 8.6396,15.5299 10.478,-12.201 c -0.321,-0.297 -0.672,-0.589 -1.048,-0.868 l -10.16,11.831 0.73,1.238 z" />
      <path
         
         
         d="m 6.6643,15.7415 -4.88,5.682 c 0.309,0.305 0.645,0.6 1.022,0.898 l 4.588,-5.342 -0.73,-1.238 z" />
      <path
         
         
         d="m 4.8556,0.2577 c -0.198,0.088 -0.402,0.179 -0.598,0.283 -0.165,0.088 -0.326,0.188 -0.481,0.285 l -0.087,0.054 8.566,23.076 c 0.497,-0.084 0.938,-0.182 1.341,-0.297 l -8.695,-23.422 -0.046,0.021 z" />
      <path
         
         
         d="m 12.6891,6.4194 5.585,-4.335 c -0.394,-0.339 -0.759,-0.621 -1.112,-0.861 l -3.841,2.982 -0.632,2.214 z" />
    </g>
    <polygon
       transform="translate(158.79507,439.8303)"
       style="fill:#FF3972;fill-rule:evenodd;stroke:none;stroke-width:1"
       points="10.6106,12.4749 12.5716,10.9529 13.2036,8.7389 10.1146,11.1379 "/>
       
    <g
       style="fill:#FF3972;fill-rule:evenodd;stroke:none;stroke-width:1"
       transform="translate(158.79507,442.7203)"
       id="Group-175">
      <path
         
         
         d="m 23.6901,7.4148 c -0.159,-0.376 -0.316,-0.71 -0.48,-1.018 -0.051,-0.095 -0.107,-0.185 -0.163,-0.275 -0.007,-0.011 -0.015,-0.023 -0.022,-0.035 l -15.001,18.019 c 0.502,0.176 0.971,0.311 1.426,0.412 l 14.24,-17.103 z" />
      <path
         
         
         d="m 15.6753,17.3915 -0.729,0.876 5.075,3.61 c 0.303,-0.249 0.594,-0.509 0.867,-0.778 l -5.213,-3.708 z" />
      <path
         
         
         d="m 10.6798,15.5085 -2.441,8.552 c 0.385,0.129 0.746,0.233 1.092,0.315 l 2.332,-8.168 -0.983,-0.699 z" />
      <path
         
         
         d="m 12.1239,14.5901 4.012,-14.057 c -0.376,-0.129 -0.736,-0.235 -1.091,-0.321 l -3.904,13.679 0.983,0.699 z" />
      <path
         
         
         d="m 11.378,6.9826 0.016,-6.956 c -0.42,0.041 -0.868,0.112 -1.361,0.216 l -0.018,7.799 1.363,-1.059 z" />
      <path
         
         
         d="m 0.9488,6.9159 c -0.161,0.339 -0.312,0.7 -0.45,1.076 l 12.878,9.16 0.729,-0.877 -13.157,-9.359 z" />
      <path
         
         
         d="m 5.5037,11.8267 -5.15,3.998 c 0.165,0.461 0.344,0.888 0.544,1.3 l 5.764,-4.474 -1.158,-0.824 z" />
    </g>
    <polygon
       transform="translate(158.79507,439.8303)"
       style="fill:#FF3972;fill-rule:evenodd;stroke:none;stroke-width:1"
       points="7.5277,13.1452 8.2247,14.3272 9.1137,13.6372 8.6167,12.3002 "/>
       
    <path
       style="fill:#FF3972;fill-rule:evenodd;stroke:none;stroke-width:1"
       
       
       d="m 166.80027,453.7854 0.605,1.026 1.488,1.058 13.961,4.388 c 0.206,-0.468 0.363,-0.878 0.489,-1.273 l -16.543,-5.199 z" />
  </g>
</svg>
